{
    "success": true,
    "data": {
        "current_page": 1,
        "data": [
            {
                "id": 1,
                "produk": "E-Payment",
                "id_service": "S1",
                "nama_service": "Payment Gateway",
                "deskripsi": null,
                "date_added": "2024-04-07 19:08:03",
                "date_updated": null,
                "created_by": "Sugih Permana",
                "created_at": "2024-04-07T19:08:03.000000Z",
                "updated_at": "2024-04-07T19:08:03.000000Z"
            },
            {
                "id": 6,
                "produk": "E-Payment",
                "id_service": "S1",
                "nama_service": "Gespay",
                "deskripsi": null,
                "date_added": "2024-04-24 14:40:01",
                "date_updated": null,
                "created_by": "Sugih Permana",
                "created_at": "2024-04-24T14:39:46.000000Z",
                "updated_at": "2024-04-24T14:39:46.000000Z"
            },
            {
                "id": 2,
                "produk": "IT Services",
                "id_service": "S2",
                "nama_service": "Data Centre",
                "deskripsi": null,
                "date_added": "2024-04-07 19:08:06",
                "date_updated": null,
                "created_by": "Sugih Permana",
                "created_at": "2024-04-07T19:08:06.000000Z",
                "updated_at": "2024-04-07T19:08:06.000000Z"
            },
            {
                "id": 7,
                "produk": "IT Services",
                "id_service": "S2",
                "nama_service": "Seat Management",
                "deskripsi": null,
                "date_added": "2024-04-24 14:40:29",
                "date_updated": null,
                "created_by": "Sugih Permana",
                "created_at": "2024-04-24T14:40:18.000000Z",
                "updated_at": "2024-04-24T14:40:18.000000Z"
            },
            {
                "id": 9,
                "produk": "IT Services",
                "id_service": "S2",
                "nama_service": "IT Service Lainnya",
                "deskripsi": null,
                "date_added": "2024-04-24 14:41:26",
                "date_updated": null,
                "created_by": "Sugih Permana",
                "created_at": "2024-04-24T14:41:05.000000Z",
                "updated_at": "2024-04-24T14:41:05.000000Z"
            },
            {
                "id": 3,
                "produk": "Apps Services",
                "id_service": "S3",
                "nama_service": "Web Apps",
                "deskripsi": null,
                "date_added": "2024-04-07 19:08:07",
                "date_updated": null,
                "created_by": "Sugih Permana",
                "created_at": "2024-04-07T19:08:07.000000Z",
                "updated_at": "2024-04-07T19:08:07.000000Z"
            },
            {
                "id": 10,
                "produk": "Apps Services",
                "id_service": "S3",
                "nama_service": "ERP",
                "deskripsi": null,
                "date_added": "2024-04-24 14:44:59",
                "date_updated": null,
                "created_by": "Sugih Permana",
                "created_at": "2024-04-24T14:44:45.000000Z",
                "updated_at": "2024-04-24T14:44:45.000000Z"
            },
            {
                "id": 11,
                "produk": "Apps Services",
                "id_service": "S3",
                "nama_service": "Web Apps",
                "deskripsi": null,
                "date_added": "2024-04-24 14:45:31",
                "date_updated": null,
                "created_by": "Sugih Permana",
                "created_at": "2024-04-24T14:45:08.000000Z",
                "updated_at": "2024-04-24T14:45:08.000000Z"
            },
            {
                "id": 12,
                "produk": "Apps Services",
                "id_service": "S3",
                "nama_service": "Mobile Apps",
                "deskripsi": null,
                "date_added": "2024-04-24 14:45:49",
                "date_updated": null,
                "created_by": "Sugih Permana",
                "created_at": "2024-04-24T14:45:36.000000Z",
                "updated_at": "2024-04-24T14:45:36.000000Z"
            },
            {
                "id": 13,
                "produk": "Jasa Konstruksi",
                "id_service": "S4",
                "nama_service": "Jasa Aktivasi",
                "deskripsi": null,
                "date_added": "2024-04-24 14:46:21",
                "date_updated": null,
                "created_by": "Sugih Permana",
                "created_at": "2024-04-24T14:46:07.000000Z",
                "updated_at": "2024-04-24T14:46:07.000000Z"
            }
        ],
        "first_page_url": "http://127.0.0.1:8000/api/products?page=1",
        "from": 1,
        "last_page": 2,
        "last_page_url": "http://127.0.0.1:8000/api/products?page=2",
        "links": [
            {
                "url": null,
                "label": "&laquo; Previous",
                "active": false
            },
            {
                "url": "http://127.0.0.1:8000/api/products?page=1",
                "label": "1",
                "active": true
            },
            {
                "url": "http://127.0.0.1:8000/api/products?page=2",
                "label": "2",
                "active": false
            },
            {
                "url": "http://127.0.0.1:8000/api/products?page=2",
                "label": "Next &raquo;",
                "active": false
            }
        ],
        "next_page_url": "http://127.0.0.1:8000/api/products?page=2",
        "path": "http://127.0.0.1:8000/api/products",
        "per_page": 10,
        "prev_page_url": null,
        "to": 10,
        "total": 15
    }
}
